{
  "project_info": {
    "project_number": "99250439304",
    "firebase_url": "https://redevencaclientes.firebaseio.com",
    "project_id": "redevencaclientes",
    "storage_bucket": "redevencaclientes.appspot.com"
  },
  "client": [
    {
      "client_info": {
        "mobilesdk_app_id": "1:99250439304:android:db99cefa73ed4887",
        "android_client_info": {
          "package_name": "org.redevenca.clientes"
        }
      },
      "oauth_client": [
        {
          "client_id": "99250439304-l008r70nq1h0vuoa250fg9h76mvttt7q.apps.googleusercontent.com",
          "client_type": 3
        }
      ],
      "api_key": [
        {
          "current_key": "AIzaSyCzaiwavYyoVRXHdneyxYcAaHdBs2AQ03o"
        }
      ],
      "services": {
        "analytics_service": {
          "status": 1
        },
        "appinvite_service": {
          "status": 1,
          "other_platform_oauth_client": []
        },
        "ads_service": {
          "status": 2
        }
      }
    }
  ],
  "configuration_version": "1"
}